^C:\USERS\IVAN ENRICO WIDODO\DOCUMENTS\VISUAL STUDIO 2010\PROJECTS\OBJECT ORIENTED PROGRAMMING\SFML-TUTORIAL\SFML-TUTORIAL\DEBUG\BULLET.OBJ|C:\USERS\IVAN ENRICO WIDODO\DOCUMENTS\VISUAL STUDIO 2010\PROJECTS\OBJECT ORIENTED PROGRAMMING\SFML-TUTORIAL\SFML-TUTORIAL\DEBUG\COLLIDER.OBJ|C:\USERS\IVAN ENRICO WIDODO\DOCUMENTS\VISUAL STUDIO 2010\PROJECTS\OBJECT ORIENTED PROGRAMMING\SFML-TUTORIAL\SFML-TUTORIAL\DEBUG\GAME.OBJ|C:\USERS\IVAN ENRICO WIDODO\DOCUMENTS\VISUAL STUDIO 2010\PROJECTS\OBJECT ORIENTED PROGRAMMING\SFML-TUTORIAL\SFML-TUTORIAL\DEBUG\PLANE.OBJ|C:\USERS\IVAN ENRICO WIDODO\DOCUMENTS\VISUAL STUDIO 2010\PROJECTS\OBJECT ORIENTED PROGRAMMING\SFML-TUTORIAL\SFML-TUTORIAL\DEBUG\PLATFORM.OBJ|C:\USERS\IVAN ENRICO WIDODO\DOCUMENTS\VISUAL STUDIO 2010\PROJECTS\OBJECT ORIENTED PROGRAMMING\SFML-TUTORIAL\SFML-TUTORIAL\DEBUG\SFML-TUTORIAL.EXE.EMBED.MANIFEST.RES
C:\USERS\IVAN ENRICO WIDODO\DOCUMENTS\VISUAL STUDIO 2010\PROJECTS\OBJECT ORIENTED PROGRAMMING\SFML-TUTORIAL\DEBUG\SFML-TUTORIAL.ILK
C:\USERS\IVAN ENRICO WIDODO\DOCUMENTS\VISUAL STUDIO 2010\PROJECTS\OBJECT ORIENTED PROGRAMMING\SFML-TUTORIAL\DEBUG\SFML-TUTORIAL.EXE
C:\USERS\IVAN ENRICO WIDODO\DOCUMENTS\VISUAL STUDIO 2010\PROJECTS\OBJECT ORIENTED PROGRAMMING\SFML-TUTORIAL\SFML-TUTORIAL\DEBUG\SFML-TUTORIAL.EXE.INTERMEDIATE.MANIFEST
C:\USERS\IVAN ENRICO WIDODO\DOCUMENTS\VISUAL STUDIO 2010\PROJECTS\OBJECT ORIENTED PROGRAMMING\SFML-TUTORIAL\DEBUG\SFML-TUTORIAL.PDB
^F:\TERM II_IT\PBO\PROJEK\SFML-TUTORIAL\SFML-TUTORIAL\DEBUG\BULLET.OBJ|F:\TERM II_IT\PBO\PROJEK\SFML-TUTORIAL\SFML-TUTORIAL\DEBUG\COLLIDER.OBJ|F:\TERM II_IT\PBO\PROJEK\SFML-TUTORIAL\SFML-TUTORIAL\DEBUG\GAME.OBJ|F:\TERM II_IT\PBO\PROJEK\SFML-TUTORIAL\SFML-TUTORIAL\DEBUG\PLANE.OBJ|F:\TERM II_IT\PBO\PROJEK\SFML-TUTORIAL\SFML-TUTORIAL\DEBUG\PLATFORM.OBJ|F:\TERM II_IT\PBO\PROJEK\SFML-TUTORIAL\SFML-TUTORIAL\DEBUG\SFML-TUTORIAL.EXE.EMBED.MANIFEST.RES
F:\TERM II_IT\PBO\PROJEK\SFML-TUTORIAL\DEBUG\SFML-TUTORIAL.ILK
F:\TERM II_IT\PBO\PROJEK\SFML-TUTORIAL\DEBUG\SFML-TUTORIAL.EXE
F:\TERM II_IT\PBO\PROJEK\SFML-TUTORIAL\SFML-TUTORIAL\DEBUG\SFML-TUTORIAL.EXE.INTERMEDIATE.MANIFEST
F:\TERM II_IT\PBO\PROJEK\SFML-TUTORIAL\DEBUG\SFML-TUTORIAL.PDB
^F:\IT\TERM 04\KECERDASAN  BUATAN\PROJEK\SFML-TUTORIAL\SFML-TUTORIAL\DEBUG\MAIN.OBJ|F:\IT\TERM 04\KECERDASAN  BUATAN\PROJEK\SFML-TUTORIAL\SFML-TUTORIAL\DEBUG\SFML-TUTORIAL.EXE.EMBED.MANIFEST.RES
F:\IT\TERM 04\KECERDASAN  BUATAN\PROJEK\SFML-TUTORIAL\DEBUG\SFML-TUTORIAL.ILK
F:\IT\TERM 04\KECERDASAN  BUATAN\PROJEK\SFML-TUTORIAL\DEBUG\SFML-TUTORIAL.EXE
F:\IT\TERM 04\KECERDASAN  BUATAN\PROJEK\SFML-TUTORIAL\SFML-TUTORIAL\DEBUG\SFML-TUTORIAL.EXE.INTERMEDIATE.MANIFEST
F:\IT\TERM 04\KECERDASAN  BUATAN\PROJEK\SFML-TUTORIAL\DEBUG\SFML-TUTORIAL.PDB
^F:\IT\TERM 04\KECERDASAN  BUATAN\SUDOKU\SFML-TUTORIAL\DEBUG\MAIN.OBJ|F:\IT\TERM 04\KECERDASAN  BUATAN\SUDOKU\SFML-TUTORIAL\DEBUG\SUDOKU.EXE.EMBED.MANIFEST.RES
F:\IT\TERM 04\KECERDASAN  BUATAN\SUDOKU\DEBUG\SUDOKU.ILK
F:\IT\TERM 04\KECERDASAN  BUATAN\SUDOKU\DEBUG\SUDOKU.EXE
F:\IT\TERM 04\KECERDASAN  BUATAN\SUDOKU\SFML-TUTORIAL\DEBUG\SUDOKU.EXE.INTERMEDIATE.MANIFEST
F:\IT\TERM 04\KECERDASAN  BUATAN\SUDOKU\DEBUG\SUDOKU.PDB
