^C:\USERS\IVAN ENRICO WIDODO\DOCUMENTS\VISUAL STUDIO 2010\PROJECTS\OBJECT ORIENTED PROGRAMMING\SFML-TUTORIAL\SFML-TUTORIAL\DEBUG\SFML-TUTORIAL_MANIFEST.RC
C:\USERS\IVAN ENRICO WIDODO\DOCUMENTS\VISUAL STUDIO 2010\PROJECTS\OBJECT ORIENTED PROGRAMMING\SFML-TUTORIAL\SFML-TUTORIAL\DEBUG\SFML-TUTORIAL.EXE.EMBED.MANIFEST.RES
^F:\TERM II_IT\PBO\PROJEK\SFML-TUTORIAL\SFML-TUTORIAL\DEBUG\SFML-TUTORIAL_MANIFEST.RC
F:\TERM II_IT\PBO\PROJEK\SFML-TUTORIAL\SFML-TUTORIAL\DEBUG\SFML-TUTORIAL.EXE.EMBED.MANIFEST.RES
^F:\IT\TERM 04\KECERDASAN  BUATAN\PROJEK\SFML-TUTORIAL\SFML-TUTORIAL\DEBUG\SFML-TUTORIAL_MANIFEST.RC
F:\IT\TERM 04\KECERDASAN  BUATAN\PROJEK\SFML-TUTORIAL\SFML-TUTORIAL\DEBUG\SFML-TUTORIAL.EXE.EMBED.MANIFEST.RES
^F:\IT\TERM 04\KECERDASAN  BUATAN\SUDOKU\SFML-TUTORIAL\DEBUG\SUDOKU_MANIFEST.RC
F:\IT\TERM 04\KECERDASAN  BUATAN\SUDOKU\SFML-TUTORIAL\DEBUG\SUDOKU.EXE.EMBED.MANIFEST.RES
